Year,prognostic model OR prediction model,causality,decision-making
1970,0,23041.025220347634,196.87730715594324
1971,0.8942224288869614,24075.597564138105,260.21872680610574
1972,0.43869462028787143,24763.433926009766,299.18973103632834
1973,0.43260266742804737,25315.042892554473,360.7906246349915
1974,0,26753.878606423514,371.69978225367447
1975,0.40121648839280694,25202.413718394175,417.6663644169121
1976,0,24422.129074504668,423.8700393285522
1977,0.7626776085480906,25018.876270811565,422.9047339399163
1978,0,25666.797501183013,454.8639259892373
1979,1.41753490679708,26297.04443971933,524.4879155149196
1980,1.0687757174157002,26596.12746931723,460.6423342061668
1981,1.4099748671979921,27627.752535311058,483.97387316571076
1982,1.690171315764566,28265.410982057143,498.2625038873941
1983,2.2610476402737802,28770.8622020666,465.129800284892
1984,1.5707710915288315,29592.070747529964,457.72269607150145
1985,1.7886901124191736,29604.01382061227,467.44434937887735
1986,3.71621814772253,29256.35616234728,505.69153102470426
1987,4.075455703871954,29860.04885112904,497.748989966228
1988,3.099934126399814,30601.25805659963,525.4388344247685
1989,5.21215972042968,31890.723348489963,604.6105275698429
1990,5.10988690116992,33447.12970352923,682.2915652800218
1991,5.565207291873346,34300.30826409086,738.7207766125792
1992,4.544345638145716,34802.512305609634,791.9120214684455
1993,6.780532856357918,35288.69872222027,843.8256233998527
1994,6.834195581009137,35566.748449207116,853.5910280680412
1995,9.347728835740373,36140.10019875052,872.8998212803273
1996,7.628463322348346,36342.21722376245,882.7221844431658
1997,10.725057674544841,37812.832422068226,1024.1335685550064
1998,11.58502035804032,38769.375946548826,1000.1032119995534
1999,12.9572229431927,38682.16944403391,1049.9399716155835
2000,12.766644512783541,38404.31963171985,947.3601207574375
2001,18.260671079662178,38867.83839306094,1020.7715133531158
2002,18.922446265557962,38748.92566484988,1059.8338361634474
2003,19.8458081616727,39656.12932739529,1178.1346285806546
2004,18.444214846967725,38874.6215419051,1193.7158371719704
2005,27.269196943565614,38591.338960401124,1230.6831290761024
2006,31.995392663456464,38650.16770918321,1324.6092562670974
2007,36.861485975475674,38748.6669488477,1325.4881922491736
2008,32.369030840161486,38353.71825804448,1332.505195766943
2009,41.361629397521725,38326.16436405071,1342.2589374732945
2010,52.754260676103705,37902.71562375279,1360.8900928135322
2011,56.73372481889791,37059.46850592372,1384.048122740817
2012,63.667855622587226,36215.45055558002,1450.8748367020419
2013,70.78106997673964,35535.48835894872,1470.7506358557423
2014,79.45387486927018,34072.93998412581,1533.6754217980629
2015,94.05213652585877,32722.113700526228,1594.354645722377
2016,104.12572909411394,31102.308587259777,1694.8057759429098
2017,117.94858423354127,30269.379841988775,1799.4444606344684
2018,134.05559608131523,29254.45261371421,1901.6363364647498
2019,171.07185511730592,28397.15195342895,1916.4985929780823
2020,221.9179519846921,26338.86023135114,1876.814485866688
2021,318.0077423581937,23497.40079577665,1795.461952665145
2022,433.52446429326153,21266.648821515617,1754.4413293698315
2023,448.4467781389645,17491.286667926837,1729.5370550567125
